Categories:Internet
License:GPL-3.0-or-later
Web Site:
Source Code:https://github.com/thuryn/your-local-weather
Issue Tracker:https://github.com/thuryn/your-local-weather/issues
Changelog:https://raw.githubusercontent.com/thuryn/your-local-weather/HEAD/CHANGELOG

Auto Name:Your local weather

Repo Type:git
Repo:https://github.com/thuryn/your-local-weather

Build:1.0,1
    commit=v1.0.2
    subdir=app
    gradle=yes

Build:1.6,8
    disable=wrong version name/code
    commit=v1.6
    subdir=app
    gradle=yes

Build:1.7,9
    disable=wrong version name/code
    commit=v1.7
    subdir=app
    gradle=yes

Build:1.7.1,10
    commit=v1.7.1
    subdir=app
    gradle=yes

Build:1.8,12
    commit=v1.8
    subdir=app
    gradle=yes

Build:1.9,13
    commit=v1.9
    subdir=app
    gradle=yes

Build:2.2,16
    commit=v2.2
    subdir=app
    gradle=yes

Build:2.2.2,18
    commit=v2.2.2
    subdir=app
    gradle=yes

Build:2.3,19
    commit=v2.3
    subdir=app
    gradle=yes

Build:2.4,20
    commit=v2.4
    subdir=app
    gradle=yes

Build:2.5,23
    commit=v2.5
    subdir=app
    gradle=yes

Build:2.5.2,25
    commit=v2.5.2
    subdir=app
    gradle=yes

Build:3.0.4,30
    commit=v3.0.4
    subdir=app
    gradle=yes

Build:3.0.5,31
    commit=v3.0.5
    subdir=app
    gradle=yes

Build:3.0.7,33
    commit=v3.0.7
    subdir=app
    gradle=yes

Build:3.0.8,34
    commit=v3.0.8
    subdir=app
    gradle=yes

Build:3.0.9,35
    commit=v3.0.9
    subdir=app
    gradle=yes

Build:3.0.11,37
    commit=v3.0.11
    subdir=app
    gradle=yes

Build:3.0.13,39
    commit=v3.0.13
    subdir=app
    gradle=yes

Build:3.0.15,41
    commit=v3.0.15
    subdir=app
    gradle=yes

Build:3.0.16,42
    commit=v3.0.16
    subdir=app
    gradle=yes

Build:3.0.17,43
    commit=v3.0.17
    subdir=app
    gradle=yes

Build:3.1.0,44
    commit=v3.1.0
    subdir=app
    gradle=yes

Build:3.1.1,45
    commit=v3.1.1
    subdir=app
    gradle=yes

Build:3.1.2,46
    commit=v3.1.2
    subdir=app
    gradle=yes

Build:3.1.5,49
    commit=v3.1.5
    subdir=app
    gradle=yes

Build:3.1.6,50
    commit=v3.1.6
    subdir=app
    gradle=yes

Build:3.1.7,51
    commit=v3.1.7
    subdir=app
    gradle=yes

Build:3.1.9,53
    commit=v3.1.9
    subdir=app
    gradle=yes

Build:3.1.11,55
    commit=v3.1.11
    subdir=app
    gradle=yes

Build:3.1.12,56
    commit=v3.1.12
    subdir=app
    gradle=yes

Build:3.2.0,58
    commit=v3.2.0
    subdir=app
    gradle=yes

Build:3.2.1,59
    commit=v3.2.1
    subdir=app
    gradle=yes

Build:3.2.2,60
    commit=v3.2.2
    subdir=app
    gradle=yes

Auto Update Mode:Version v%v
Update Check Mode:Tags
Current Version:3.2.2
Current Version Code:60
